{
  "windowsProjectsRoot": "C:\\testes\\",
  "unixLikeProjectsRoot": "/home/fdalton/Documents/mestrado/repositorios/",
  "saveToMongoDB": false,
  "newestTagOnly" : false,
  "mongoConnectionString": "mongodb://localhost:27017",
  "mongoDatabaseName": "ExceptionHunter",
  "mongoCollectionName":  "ExceptionHunter_TestProject",
  "projects": [
    {
      "projectName": "test-webauth",
      "projectOwner": "exceptionHunterProject",
      "description": "A test Project",
      "stars":"0",
      "platform": "server/desktop",
      "size": 27266,
      "domain": "libraries",
      "contributors": 186,
      "includedAt": "28/04/2019",
      "createdAt": "23/07/1500 10:42:55",
      "lastUpdatedAt": "16/08/2019 18:49:03",
      "tags": {
        "v1.0": "01/01/2019 14:00:00",
        "v1.2": "12/08/2019 14:00:00"
      },
      "sourceRoots": [
        "all"
      ],
      "gitRepo": "https://github.com/fdalton/webauthndemo.git",
      "active": true
    }
  ]
}