project;platform;domain;totalNumberOfJUnitTests;totalNumberOfTestNGTests;totalNumberOfNotIdentifiedTests;NNIEU;NEU;NNIEU_NEU;NNIETM;NEBTM;NNIETM_NEBTM
libgdx;Multi-platform;Frameworks;41;0;26;16;4550;0.0035;0;7;0.0
VasSonic;Mobile;Frameworks;7;0;0;2;97;0.0206;0;0;NaN
VirtualAPK;Mobile;Frameworks;2;0;0;6;444;0.0135;0;0;NaN
atlas;Mobile;Frameworks;32;0;0;71;4415;0.0161;0;0;NaN
RePlugin;Mobile;Frameworks;2;0;0;5;875;0.0057;0;0;NaN
RIBs;Mobile;Frameworks;74;0;0;0;89;0.0;0;3;0.0
Small;Mobile;Frameworks;15;0;0;2;133;0.015;0;0;NaN
robolectric;Mobile;Frameworks;5193;0;0;43;2147;0.02;83;464;0.1789
smartTable;Mobile;Frameworks;2;0;0;0;55;0.0;0;0;NaN
Conductor;Mobile;Frameworks;91;0;0;0;39;0.0;0;0;NaN
Rosie;Mobile;Frameworks;119;0;0;2;116;0.0172;0;11;0.0
Component;Mobile;Frameworks;6;0;0;3;261;0.0115;0;0;NaN
MiPushFramework;Mobile;Frameworks;30;0;0;5;595;0.0084;0;0;NaN
binding-collection-adapter;Mobile;Frameworks;44;0;0;0;30;0.0;4;5;0.8
RoboBinding;Mobile;Frameworks;350;0;0;15;340;0.0441;0;59;0.0
EasyMVP;Mobile;Frameworks;9;0;0;0;27;0.0;0;0;NaN
scoop;Mobile;Frameworks;67;0;0;0;13;0.0;0;1;0.0
Hermes;Mobile;Frameworks;1;0;0;0;137;0.0;0;0;NaN
Shield;Mobile;Frameworks;2;0;0;0;26;0.0;0;0;NaN
logback-android;Mobile;Frameworks;987;0;0;4;610;0.0066;0;26;0.0
JustWeEngine;Mobile;Frameworks;1;0;0;0;83;0.0;0;0;NaN
AndRouter;Mobile;Frameworks;20;0;0;0;37;0.0;0;0;NaN
Paginize;Mobile;Frameworks;4;0;0;0;126;0.0;0;0;NaN
android_frameworks_base;Mobile;Frameworks;882;0;16;339;16188;0.0209;0;188;0.0
mobius;Mobile;Frameworks;252;0;0;3;65;0.0462;2;32;0.0625
android-test;Mobile;Frameworks;1552;0;0;88;1539;0.0572;1;157;0.0064
android-data-binding-recyclerview;Mobile;Frameworks;1;0;0;0;2;0.0;0;0;NaN
lancet;Mobile;Frameworks;1;0;0;12;109;0.1101;0;0;NaN
realm-android-adapters;Mobile;Frameworks;29;0;0;0;7;0.0;0;3;0.0
LGame;Multi-platform;Frameworks;2;0;0;66;6247;0.0106;0;0;NaN
engine;Desktop/Server;Frameworks;27;0;0;190;1602;0.1186;0;1;0.0
SAF;Mobile;Frameworks;2;0;0;5;434;0.0115;0;0;NaN
Android-Face-Recognition-with-Deep-Learning-Test-Framework;Mobile;Frameworks;1;0;0;0;2;0.0;0;0;NaN
bento;Mobile;Frameworks;81;0;0;0;20;0.0;0;9;0.0
tinylog;Multi-platform;Frameworks;1401;0;0;3;179;0.0168;55;78;0.7051
container;Mobile;Frameworks;2;0;0;23;984;0.0234;0;0;NaN
transfuse;Mobile;Frameworks;264;0;0;0;331;0.0;0;3;0.0
SeLion;Desktop/Server;Frameworks;0;707;0;22;742;0.0296;0;148;0.0
SmartRefreshHorizontal;Mobile;Frameworks;2;0;0;0;3;0.0;0;0;NaN
Android-Router;Mobile;Frameworks;18;0;0;0;52;0.0;0;0;NaN
Slick;Mobile;Frameworks;33;0;0;0;42;0.0;0;0;NaN
simple-mvp;Mobile;Frameworks;3;0;0;0;23;0.0;0;0;NaN
playn;Multi-platform;Frameworks;142;0;0;32;589;0.0543;0;48;0.0
AndroidMvc;Mobile;Frameworks;300;0;0;2;227;0.0088;0;44;0.0
relight;Mobile;Frameworks;2;0;0;0;63;0.0;0;0;NaN
EasyRouter;Mobile;Frameworks;4;0;0;0;17;0.0;0;0;NaN
wechatbot-xposed;Mobile;Frameworks;5;0;0;0;60;0.0;0;0;NaN
EasyBle;Mobile;Frameworks;4;0;0;0;13;0.0;0;0;NaN
uitkyk;Mobile;Frameworks;2;0;0;0;17;0.0;0;0;NaN
Pan;Mobile;Frameworks;5;0;0;0;18;0.0;0;0;NaN
RxViper;Mobile;Frameworks;75;0;0;0;4;0.0;5;9;0.5556
funf-core-android;Mobile;Frameworks;0;0;30;1;263;0.0038;0;0;NaN
AndroidDvbDriver;Mobile;Frameworks;32;0;0;14;612;0.0229;0;1;0.0
WeexErosFramework;Mobile;Frameworks;2;0;0;3;375;0.008;0;0;NaN
MPAndroidChart;Mobile;Libraries;10;0;0;0;23;0.0;0;0;NaN
glide;Mobile;Libraries;1922;0;0;22;634;0.0347;13;144;0.0903
zxing;Multi-platform;Libraries;409;0;0;233;1110;0.2099;0;21;0.0
picasso;Mobile;Libraries;358;0;0;0;157;0.0;22;94;0.234
Android-Universal-Image-Loader;Mobile;Libraries;13;0;0;6;240;0.025;0;0;NaN
fresco;Mobile;Libraries;1401;0;0;35;582;0.0601;12;70;0.1714
tinker;Mobile;Libraries;3;0;0;9;987;0.0091;0;0;NaN
Android-ObservableScrollView;Mobile;Libraries;3;0;0;0;24;0.0;0;1;0.0
Fragmentation;Mobile;Libraries;1;0;0;0;35;0.0;0;0;NaN
BottomBar;Mobile;Libraries;60;0;0;0;13;0.0;0;4;0.0
Android-Debug-Database;Mobile;Libraries;10;0;0;0;41;0.0;0;0;NaN
AgentWeb;Mobile;Libraries;6;0;0;1;74;0.0135;0;0;NaN
epoxy;Mobile;Libraries;291;0;0;5;137;0.0365;0;30;0.0
ListViewAnimations;Mobile;Libraries;63;0;0;1;65;0.0154;0;0;NaN
android-job;Mobile;Libraries;234;0;0;6;410;0.0146;0;22;0.0
mosby;Mobile;Libraries;101;0;0;0;143;0.0;0;9;0.0
android-advancedrecyclerview;Mobile;Libraries;44;0;0;0;110;0.0;0;10;0.0
Fast-Android-Networking;Mobile;Libraries;205;0;0;1;149;0.0067;0;0;NaN
android-crop;Mobile;Libraries;0;0;6;0;23;0.0;0;0;NaN
Dexter;Mobile;Libraries;13;0;0;0;8;0.0;0;3;0.0
zxing-android-embedded;Mobile;Libraries;9;0;0;2;48;0.0417;0;0;NaN
Bolts-Android;Mobile;Libraries;96;0;0;1;48;0.0208;0;4;0.0
Store;Mobile;Libraries;132;0;0;12;278;0.0432;0;27;0.0
DeepLinkDispatch;Mobile;Libraries;49;0;0;0;56;0.0;0;2;0.0
spruce-android;Mobile;Libraries;54;0;0;0;13;0.0;0;6;0.0
LoganSquare;Mobile;Libraries;49;0;0;0;126;0.0;0;0;NaN
FlexibleAdapter;Mobile;Libraries;35;0;0;0;20;0.0;0;1;0.0
android-saripaar;Mobile;Libraries;0;0;73;0;129;0.0;0;0;NaN
robospice;Mobile;Libraries;0;0;240;17;576;0.0295;0;11;0.0
blurkit-android;Mobile;Libraries;8;0;0;0;9;0.0;0;0;NaN
cordova-android;Mobile;Libraries;18;0;0;1;100;0.01;0;0;NaN
AppUpdate;Mobile;Libraries;2;0;0;0;15;0.0;0;0;NaN
ffmpeg-android-java;Mobile;Libraries;1;0;0;1;49;0.0204;0;0;NaN
hover;Mobile;Libraries;2;0;0;0;29;0.0;0;0;NaN
web3j;Mobile;Libraries;760;0;0;30;586;0.0512;0;67;0.0
MaterialChipsInput;Mobile;Libraries;4;0;0;0;1;0.0;0;0;NaN
sensey;Mobile;Libraries;66;0;0;0;1;0.0;0;4;0.0
joda-time-android;Mobile;Libraries;52;0;0;0;25;0.0;0;10;0.0
Slidr;Mobile;Libraries;13;0;0;0;7;0.0;0;0;NaN
device-year-class;Mobile;Libraries;5;0;0;0;7;0.0;0;0;NaN
PlayerBase;Mobile;Libraries;2;0;0;0;34;0.0;0;0;NaN
ViewAnimator;Mobile;Libraries;1;0;0;0;3;0.0;0;0;NaN
RxCache;Mobile;Libraries;161;0;0;0;102;0.0;0;12;0.0
PRDownloader;Mobile;Libraries;4;0;0;0;53;0.0;0;0;NaN
android-beacon-library;Mobile;Libraries;209;0;0;0;167;0.0;0;4;0.0
TableView;Mobile;Libraries;4;0;0;0;1;0.0;0;0;NaN
ReactiveNetwork;Mobile;Libraries;69;0;0;0;13;0.0;0;15;0.0
reark;Mobile;Libraries;115;0;0;0;27;0.0;0;10;0.0
Smack;Mobile;Libraries;627;0;0;78;5602;0.0139;0;112;0.0
PlaceHolderView;Mobile;Libraries;2;0;0;0;148;0.0;0;0;NaN
KJFrameForAndroid;Mobile;Libraries;2;0;0;0;233;0.0;0;0;NaN
PhotoEditor;Mobile;Libraries;39;0;0;0;14;0.0;0;0;NaN
stetho;Mobile;Tools;38;0;0;30;596;0.0503;0;0;NaN
Apktool;Desktop/Server;Tools;142;0;0;4;799;0.005;0;4;0.0
dex2jar;Desktop/Server;Tools;79;0;0;25;554;0.0451;0;1;0.0
freeline;Desktop/Server;Tools;2;0;0;0;170;0.0;0;0;NaN
NullAway;Multi-platform;Tools;130;0;0;0;94;0.0;0;0;NaN
vectalign;Mobile;Tools;9;0;0;0;20;0.0;0;0;NaN
AndroidGodEye;Mobile;Tools;4;0;0;1;134;0.0075;0;0;NaN
osmdroid;Mobile;Tools;125;0;1;3;474;0.0063;0;0;NaN
permissions4m;Mobile;Tools;2;0;0;0;41;0.0;0;0;NaN
bundletool;Desktop/Server;Tools;1863;0;0;151;475;0.3179;0;418;0.0
QBox;Mobile;Tools;1;0;0;0;162;0.0;0;0;NaN
bugsnag-android;Mobile;Tools;276;0;0;0;235;0.0;0;28;0.0
androidpn;Mobile;Tools;1;0;0;0;589;0.0;0;2;0.0
AndroidNetworkTools;Mobile;Tools;27;0;0;0;77;0.0;0;13;0.0
AppiumTestDistribution;Desktop/Server;Tools;2;26;0;0;192;0.0;0;0;NaN
apk-dependency-graph;Desktop/Server;Tools;21;0;0;0;16;0.0;0;0;NaN
scytale;Mobile;Tools;31;0;0;0;102;0.0;0;0;NaN
osmtracker-android;Mobile;Tools;2;0;0;0;95;0.0;0;0;NaN
Bugtags-Android;Mobile;Tools;1;0;0;0;61;0.0;0;0;NaN
brut.apktool;Desktop/Server;Tools;100;0;0;37;1292;0.0286;0;41;0.0
Book-Catalogue;Mobile;Tools;0;0;16;14;1255;0.0112;0;0;NaN
uber-apk-signer;Desktop/Server;Tools;63;0;0;1;51;0.0196;0;4;0.0
Utils-Everywhere;Mobile;Tools;28;0;0;3;262;0.0115;2;12;0.1667
bee;Mobile;Tools;27;0;0;0;12;0.0;1;1;1.0
ToolsFinal;Mobile;Tools;1;0;0;0;113;0.0;0;0;NaN
density-converter;Multi-platform;Tools;77;0;0;0;76;0.0;0;6;0.0
Dream-Catcher;Mobile;Tools;2;0;0;17;564;0.0301;0;0;NaN
AndroidTools;Mobile;Tools;4;0;0;0;50;0.0;0;0;NaN
enroscar;Mobile;Tools;99;0;0;5;344;0.0145;4;8;0.5
FCM-toolbox;Mobile;Tools;2;0;0;0;5;0.0;0;0;NaN
croperino;Mobile;Tools;2;0;0;1;21;0.0476;0;0;NaN
AndroidPerformanceTools;Mobile;Tools;2;0;0;0;6;0.0;0;0;NaN
Typesetter;Mobile;Tools;2;0;0;0;5;0.0;0;0;NaN
GridPagerSnapHelper;Mobile;Tools;6;0;0;0;14;0.0;0;0;NaN
meter;Desktop/Server;Tools;24;0;0;0;8;0.0;0;1;0.0
easyrs;Mobile;Tools;29;0;0;0;10;0.0;0;0;NaN
DavidAndroidProjectTools;Mobile;Tools;1;0;0;0;198;0.0;0;0;NaN
FAST;Mobile;Tools;21;0;0;0;26;0.0;0;0;NaN
uber-adb-tools;Mobile;Tools;82;0;0;1;39;0.0256;0;2;0.0
size-analyzer;Desktop/Server;Tools;114;0;0;2;42;0.0476;0;3;0.0
EasyPermissionUtil;Mobile;Tools;2;0;0;0;7;0.0;0;0;NaN
AndroidJUnit4;Mobile;Tools;93;0;0;3;441;0.0068;0;1;0.0
anticipate;Mobile;Tools;1;0;3;0;38;0.0;0;0;NaN
accessibilitools;Mobile;Tools;10;0;0;0;30;0.0;3;3;1.0
Andzu;Mobile;Tools;4;0;0;0;6;0.0;0;0;NaN
BuildmLearn-Toolkit-Android;Mobile;Tools;1;0;0;0;173;0.0;0;0;NaN
Box;Mobile;Tools;4;0;0;0;103;0.0;0;0;NaN
ArcgisTool;Mobile;Tools;4;0;0;1;12;0.0833;0;0;NaN
AARemu;Mobile;Tools;5;0;0;0;773;0.0;0;0;NaN
BangScreenToolsMaster;Mobile;Tools;2;0;0;0;23;0.0;0;0;NaN
apksigner;Mobile;Tools;6;0;0;2;113;0.0177;0;1;0.0
Watcher;Mobile;Tools;2;0;0;0;1;0.0;0;0;NaN
AndroidStarterKit;Desktop/Server;Tools;20;0;0;0;57;0.0;0;0;NaN
spring-framework;Multi-platform;Frameworks;16871;48;0;391;11847;0.033;179;2329;0.0769
dubbo;Desktop/Server;Frameworks;2395;0;0;55;3085;0.0178;0;315;0.0
netty;Desktop/Server;Frameworks;4162;0;0;385;6993;0.0551;0;779;0.0
ghidra;Desktop/Server;Frameworks;10972;0;0;374;28844;0.013;0;348;0.0
selenium;Multi-platform;Frameworks;2590;0;0;36;1605;0.0224;63;421;0.1496
mybatis-3;Desktop/Server;Frameworks;1515;0;0;50;1004;0.0498;9;100;0.09
xxl-job;Desktop/Server;Frameworks;17;0;0;2;247;0.0081;0;0;NaN
mockito;Multi-platform;Frameworks;2136;0;0;110;495;0.2222;41;623;0.0658
platform_frameworks_base;Mobile;Frameworks;12543;906;0;2732;37827;0.0722;19;806;0.0236
guice;Multi-platform;Frameworks;1255;0;0;96;653;0.147;0;391;0.0
spark;Desktop/Server;Frameworks;308;0;0;7;206;0.034;0;28;0.0
webmagic;Desktop/Server;Frameworks;94;0;0;0;145;0.0;0;2;0.0
junit4;Multi-platform;Frameworks;1574;0;0;26;527;0.0493;0;155;0.0
hsweb-framework;Desktop/Server;Frameworks;111;0;0;14;529;0.0265;0;0;NaN
springside4;Desktop/Server;Frameworks;197;0;0;25;437;0.0572;4;27;0.1481
elastic-job-lite;Desktop/Server;Frameworks;908;0;0;1;294;0.0034;0;39;0.0
motan;Desktop/Server;Frameworks;171;0;0;46;894;0.0515;0;9;0.0
blade;Desktop/Server;Frameworks;270;0;0;20;329;0.0608;0;10;0.0
FrameworkBenchmarks;Multi-platform;Frameworks;11;0;0;6;376;0.016;0;0;NaN
netty-socketio;Desktop/Server;Frameworks;32;0;0;1;118;0.0085;0;1;0.0
spring-security;Multi-platform;Frameworks;6392;0;0;43;1916;0.0224;120;1490;0.0805
atmosphere;Desktop/Server;Frameworks;0;265;0;33;1353;0.0244;0;9;0.0
sofa-boot;Desktop/Server;Frameworks;209;0;0;9;419;0.0215;0;6;0.0
jvm-sandbox;Desktop/Server;Frameworks;86;0;0;7;345;0.0203;0;1;0.0
jfinal;Desktop/Server;Frameworks;2;0;0;21;1114;0.0189;0;0;NaN
tx-lcn;Desktop/Server;Frameworks;19;0;0;192;1470;0.1306;0;0;NaN
sofa-rpc;Desktop/Server;Frameworks;569;0;0;127;982;0.1293;0;33;0.0
micronaut-core;Desktop/Server;Frameworks;118;1;0;38;1419;0.0268;0;6;0.0
powermock;Multi-platform;Frameworks;1014;57;0;35;983;0.0356;17;201;0.0846
light-4j;Desktop/Server;Frameworks;621;0;0;25;654;0.0382;3;38;0.0789
light-task-scheduler;Desktop/Server;Frameworks;40;0;0;37;1817;0.0204;0;0;NaN
spock;Desktop/Server;Frameworks;6;0;0;58;586;0.099;1;1;1.0
transmittable-thread-local;Desktop/Server;Frameworks;1;0;0;0;63;0.0;0;1;0.0
nutz;Desktop/Server;Frameworks;1229;0;10;401;1971;0.2035;0;45;0.0
curator;Multi-platform;Frameworks;32;0;0;0;35;0.0;0;3;0.0
rest.li;Desktop/Server;Frameworks;52;2970;0;55;3644;0.0151;0;391;0.0
spring-cloud-gateway;Desktop/Server;Frameworks;417;0;0;3;67;0.0448;1;4;0.25
ninja;Desktop/Server;Frameworks;989;0;0;3;513;0.0058;0;89;0.0
jetcache;Desktop/Server;Frameworks;189;0;0;2;235;0.0085;0;14;0.0
AxonFramework;Desktop/Server;Frameworks;1864;0;0;41;845;0.0485;5;215;0.0233
atomix;Desktop/Server;Frameworks;264;0;0;5;371;0.0135;0;15;0.0
logback;Desktop/Server;Frameworks;1049;0;0;5;148;0.0338;1;31;0.0323
pac4j;Multi-platform;Frameworks;831;0;0;27;670;0.0403;0;32;0.0
spring-data-jpa;Desktop/Server;Frameworks;844;0;0;2;101;0.0198;11;100;0.11
incubator-gobblin;Desktop/Server;Frameworks;44;1550;0;129;7916;0.0163;0;143;0.0
platform_frameworks_support;Mobile;Frameworks;4892;0;0;42;3898;0.0108;0;164;0.0
framework;Desktop/Server;Frameworks;5737;0;3;39;3637;0.0107;6;412;0.0146
rapidoid;Desktop/Server;Frameworks;514;0;0;397;1223;0.3246;0;5;0.0
sofa-bolt;Desktop/Server;Frameworks;271;0;0;19;486;0.0391;0;43;0.0
SeimiCrawler;Desktop/Server;Frameworks;3;0;0;0;100;0.0;0;0;NaN
spring-batch;Desktop/Server;Frameworks;3511;0;0;65;1848;0.0352;1;614;0.0016
testng;Multi-platform;Frameworks;81;2506;0;13;500;0.026;1;81;0.0123
galen;Desktop/Server;Frameworks;164;385;0;23;683;0.0337;0;24;0.0
jcommander;Multi-platform;Frameworks;0;128;0;2;118;0.0169;0;44;0.0
BroadleafCommerce;Desktop/Server;Frameworks;112;153;0;145;3639;0.0398;0;0;NaN
NettyRpc;Desktop/Server;Frameworks;6;0;0;0;55;0.0;0;0;NaN
Resty;Desktop/Server;Frameworks;20;0;0;1;466;0.0021;0;0;NaN
soot;Multi-platform;Frameworks;217;9;0;41;3867;0.0106;0;20;0.0
grpc-spring-boot-starter;Desktop/Server;Frameworks;16;0;0;16;116;0.1379;0;0;NaN
TarsosDSP;Desktop/Server;Frameworks;29;0;0;0;394;0.0;0;0;NaN
eclipse-collections;Desktop/Server;Frameworks;10362;0;0;45;2258;0.0199;0;1726;0.0
camunda-bpm-platform;Desktop/Server;Frameworks;12393;0;49;642;3685;0.1742;7;2111;0.0033
jooby;Desktop/Server;Frameworks;240;0;0;105;688;0.1526;2;4;0.5
spring-data-mongodb;Multi-platform;Frameworks;3583;0;0;19;478;0.0397;147;417;0.3525
datumbox-framework;Desktop/Server;Frameworks;278;0;0;0;335;0.0;0;0;NaN
spring-data-redis;Desktop/Server;Frameworks;3978;0;0;524;1499;0.3496;46;383;0.1201
p6spy;Desktop/Server;Frameworks;248;0;0;189;947;0.1996;0;11;0.0
fastutil;Desktop/Server;Frameworks;549;0;0;0;116;0.0;0;83;0.0
pf4j;Desktop/Server;Frameworks;90;0;0;0;118;0.0;0;12;0.0
tinkerpop;Multi-platform;Frameworks;2866;0;0;324;2909;0.1114;0;345;0.0
xxl-sso;Multi-platform;Frameworks;2;0;0;0;36;0.0;0;0;NaN
mango;Desktop/Server;Frameworks;383;0;0;16;712;0.0225;0;52;0.0
wechat4j;Desktop/Server;Frameworks;44;0;0;0;38;0.0;0;0;NaN
play-authenticate;Desktop/Server;Frameworks;6;0;0;0;144;0.0;0;0;NaN
fluent-validator;Desktop/Server;Frameworks;118;0;0;4;43;0.093;0;4;0.0
SpringBootUnity;Desktop/Server;Frameworks;4;0;0;0;164;0.0;0;0;NaN
airline;Desktop/Server;Frameworks;0;93;0;0;34;0.0;0;24;0.0
cuba;Desktop/Server;Frameworks;819;0;0;298;5511;0.0541;0;75;0.0
latke;Desktop/Server;Frameworks;3;62;0;54;701;0.077;0;1;0.0
gdx-ai;Multi-platform;Frameworks;8;0;0;19;106;0.1792;0;0;NaN
allure1;Desktop/Server;Frameworks;171;27;0;0;80;0.0;0;6;0.0
spring-statemachine;Desktop/Server;Frameworks;794;0;0;4;411;0.0097;0;7;0.0
citrus;Desktop/Server;Frameworks;2823;0;0;134;2535;0.0529;0;489;0.0
kylo;Desktop/Server;Frameworks;1216;120;0;163;4817;0.0338;6;69;0.087
pippo;Desktop/Server;Frameworks;228;0;0;2;513;0.0039;0;6;0.0
pigeon;Desktop/Server;Frameworks;26;0;0;45;1779;0.0253;0;0;NaN
sofa-ark;Desktop/Server;Frameworks;162;5;0;16;607;0.0264;0;2;0.0
jdonframework;Desktop/Server;Frameworks;18;0;0;12;1325;0.0091;0;0;NaN
cicada;Desktop/Server;Frameworks;11;0;0;0;55;0.0;0;0;NaN
javalite;Desktop/Server;Frameworks;544;0;0;19;622;0.0305;0;34;0.0
jcseg;Desktop/Server;Frameworks;3;0;0;45;552;0.0815;0;0;NaN
Fenzo;Desktop/Server;Frameworks;145;0;0;1;214;0.0047;0;2;0.0
univocity-parsers;Desktop/Server;Frameworks;0;534;0;74;389;0.1902;0;26;0.0
spring-data-rest;Desktop/Server;Frameworks;585;0;0;6;250;0.024;24;105;0.2286
ja-micro;Desktop/Server;Frameworks;205;0;0;9;398;0.0226;3;15;0.2
RxJava;Multi-platform;Libraries;11305;0;0;101;1318;0.0766;2;1367;0.0015
guava;Multi-platform;Libraries;15686;0;0;218;4818;0.0452;27;1615;0.0167
Hystrix;Multi-platform;Libraries;843;0;0;12;497;0.0241;0;118;0.0
gson;Multi-platform;Libraries;1094;0;0;17;663;0.0256;0;185;0.0
disruptor;Desktop/Server;Libraries;192;0;0;6;230;0.0261;0;61;0.0
tink;Multi-platform;Libraries;822;0;0;1;1536;0.0007;7;337;0.0208
dropwizard;Desktop/Server;Libraries;1602;0;0;34;604;0.0563;65;148;0.4392
caffeine;Multi-platform;Libraries;370;1311;0;31;515;0.0602;1;471;0.0021
react-native-image-picker;Mobile;Libraries;5;0;0;0;17;0.0;0;0;NaN
moshi;Multi-platform;Libraries;525;0;0;30;534;0.0562;2;193;0.0104
rebound;Multi-platform;Libraries;26;0;0;0;23;0.0;0;0;NaN
async-http-client;Desktop/Server;Libraries;25;565;0;12;489;0.0245;0;76;0.0
scribejava;Desktop/Server;Libraries;115;0;0;1;286;0.0035;0;44;0.0
resilience4j;Desktop/Server;Libraries;1098;0;0;56;345;0.1623;2;165;0.0121
socket.io-client-java;Multi-platform;Libraries;85;0;0;0;19;0.0;0;0;NaN
vavr;Multi-platform;Libraries;4860;0;0;118;482;0.2448;13;511;0.0254
bitcoinj;Multi-platform;Libraries;780;0;0;179;3316;0.054;8;196;0.0408
groovy;Multi-platform;Libraries;300;0;0;211;4337;0.0487;0;62;0.0
openapi-generator;Multi-platform;Libraries;5448;705;5;144;5998;0.024;0;15;0.0
ribbon;Desktop/Server;Libraries;243;0;0;1;377;0.0027;0;23;0.0
http-request;Multi-platform;Libraries;163;0;0;1;167;0.006;0;7;0.0
open-location-code;Desktop/Server;Libraries;16;0;0;0;20;0.0;0;0;NaN
camel;Desktop/Server;Libraries;19500;30;0;667;24957;0.0267;24;1519;0.0158
testcontainers-java;Multi-platform;Libraries;389;2;0;7;443;0.0158;3;40;0.075
XChange;Desktop/Server;Libraries;1159;0;0;326;8000;0.0408;18;104;0.1731
shiro;Multi-platform;Libraries;326;0;0;13;1132;0.0115;0;62;0.0
librec;Desktop/Server;Libraries;183;0;0;0;563;0.0;0;0;NaN
thumbnailator;Desktop/Server;Libraries;1180;0;0;0;203;0.0;0;315;0.0
lwjgl3;Multi-platform;Libraries;0;351;0;7;1052;0.0067;0;1;0.0
Twitter4J;Multi-platform;Libraries;188;0;0;38;2025;0.0188;0;13;0.0
loaderviewlibrary;Mobile;Libraries;2;0;0;0;1;0.0;0;0;NaN
graphhopper;Multi-platform;Libraries;1204;0;0;9;1281;0.007;0;43;0.0
mortar;Multi-platform;Libraries;92;0;0;0;53;0.0;0;23;0.0
armeria;Desktop/Server;Libraries;1691;8;0;55;1603;0.0343;56;332;0.1687
archaius;Desktop/Server;Libraries;127;0;0;6;164;0.0366;0;10;0.0
http-kit;Desktop/Server;Libraries;22;0;0;0;156;0.0;0;0;NaN
jacoco;Multi-platform;Libraries;1300;0;1;21;984;0.0213;0;101;0.0
Space-Navigation-View;Mobile;Libraries;2;0;0;0;5;0.0;0;0;NaN
commons;Desktop/Server;Libraries;605;0;0;60;1130;0.0531;0;129;0.0
bt;Desktop/Server;Libraries;356;0;0;14;1020;0.0137;0;15;0.0
unirest-java;Desktop/Server;Libraries;402;0;0;0;181;0.0;0;3;0.0
ENViews;Mobile;Libraries;4;0;0;0;1;0.0;0;0;NaN
emoji-java;Multi-platform;Libraries;69;0;0;0;14;0.0;0;0;NaN
mahout;Desktop/Server;Libraries;1137;0;0;7;3091;0.0023;0;106;0.0
tablesaw;Desktop/Server;Libraries;984;0;0;0;390;0.0;0;31;0.0
assertj-core;Multi-platform;Libraries;9480;0;0;524;812;0.6453;180;3462;0.052
CustomShapeImageView;Mobile;Libraries;66;0;0;0;24;0.0;0;1;0.0
webcam-capture;Desktop/Server;Libraries;56;0;0;6;598;0.01;0;4;0.0
helidon;Desktop/Server;Libraries;2462;11;0;75;1738;0.0432;0;238;0.0
jOOL;Multi-platform;Libraries;622;0;0;4;356;0.0112;1;60;0.0167
TelegramBots;Desktop/Server;Libraries;122;0;0;1;944;0.0011;0;13;0.0
AppUpdater;Mobile;Libraries;22;0;0;0;42;0.0;0;0;NaN
kryonet;Multi-platform;Libraries;0;0;13;7;158;0.0443;0;0;NaN
HermesEventBus;Mobile;Libraries;2;0;0;0;5;0.0;0;0;NaN
avro;Desktop/Server;Libraries;1021;0;14;44;2349;0.0187;0;160;0.0
strman-java;Desktop/Server;Libraries;133;0;0;0;15;0.0;0;5;0.0
servo;Desktop/Server;Libraries;0;307;0;16;165;0.097;0;19;0.0
protostuff;Desktop/Server;Libraries;262;0;12;112;2988;0.0375;0;11;0.0
Cipher.so;Multi-platform;Libraries;6;0;0;0;3;0.0;0;0;NaN
lanterna;Desktop/Server;Libraries;37;0;0;0;406;0.0;0;0;NaN
docx4j;Desktop/Server;Libraries;368;0;0;111;5678;0.0195;0;1;0.0
google-maps-services-java;Multi-platform;Libraries;133;0;0;7;156;0.0449;0;15;0.0
squirrel;Multi-platform;Libraries;146;0;0;5;115;0.0435;0;18;0.0
zt-zip;Multi-platform;Libraries;120;0;0;32;348;0.092;0;5;0.0
ttorrent;Desktop/Server;Libraries;0;25;0;3;570;0.0053;0;10;0.0
pi4j;Multi-platform;Libraries;233;0;0;11;2319;0.0047;0;35;0.0
commonmark-java;Multi-platform;Libraries;252;0;0;0;36;0.0;0;1;0.0
pushy;Multi-platform;Libraries;162;0;0;0;145;0.0;0;20;0.0
itextpdf;Desktop/Server;Libraries;761;0;0;27;4072;0.0066;0;19;0.0
c3p0;Desktop/Server;Libraries;3;0;0;82;1538;0.0533;0;0;NaN
imgscalr;Multi-platform;Libraries;31;0;0;0;90;0.0;0;0;NaN
google-http-java-client;Multi-platform;Libraries;548;0;3;15;684;0.0219;0;69;0.0
client_java;Desktop/Server;Libraries;213;0;0;0;142;0.0;0;26;0.0
pdfbox;Desktop/Server;Libraries;641;0;0;50;4412;0.0113;0;62;0.0
sql2o;Desktop/Server;Libraries;117;0;0;0;373;0.0;0;5;0.0
status-bar-compat;Mobile;Libraries;2;0;0;0;7;0.0;0;0;NaN
EasySwipeMenuLayout;Mobile;Libraries;4;0;0;0;1;0.0;0;0;NaN
arthas;Desktop/Server;Tools;105;0;0;10;627;0.0159;0;7;0.0
dbeaver;Desktop/Server;Tools;185;0;20;44;9810;0.0045;0;3;0.0
vert.x;Desktop/Server;Tools;3093;0;0;11;1171;0.0094;0;207;0.0
pinpoint;Desktop/Server;Tools;2286;0;0;28;5209;0.0054;0;128;0.0
hutool;Desktop/Server;Tools;871;0;0;49;2649;0.0185;0;7;0.0
SimianArmy;Desktop/Server;Tools;16;312;0;5;190;0.0263;0;32;0.0
CoreNLP;Multi-platform;Tools;1333;0;0;185;6674;0.0277;0;7;0.0
OpenRefine;Desktop/Server;Tools;163;871;7;14;1323;0.0106;0;21;0.0
antlr4;Desktop/Server;Tools;773;0;0;7;353;0.0198;0;25;0.0
j2objc;Desktop/Server;Tools;11609;58;376;390;18996;0.0205;0;2164;0.0
checkstyle;Desktop/Server;Tools;3330;0;0;32;749;0.0427;0;282;0.0
GT;Mobile;Tools;6;0;0;0;544;0.0;0;0;NaN
wiremock;Multi-platform;Tools;1305;0;0;13;316;0.0411;0;104;0.0
btrace;Multi-platform;Tools;340;0;0;44;627;0.0702;0;2;0.0
ice;Desktop/Server;Tools;2;0;0;1;131;0.0076;0;0;NaN
ysoserial;Desktop/Server;Tools;4;0;0;1;289;0.0035;0;3;0.0
jvm-tools;Desktop/Server;Tools;240;0;0;32;1434;0.0223;3;6;0.5
weixin-java-tools;Desktop/Server;Tools;2;70;0;5;415;0.012;0;4;0.0
micrometer;Desktop/Server;Tools;952;0;0;12;280;0.0429;21;89;0.236
dockerfile-maven;Desktop/Server;Tools;4;0;0;1;74;0.0135;0;0;NaN
RedisClient;Desktop/Server;Tools;35;0;0;0;145;0.0;0;0;NaN
spotbugs;Desktop/Server;Tools;322;5;16;92;4703;0.0196;0;16;0.0
scouter;Desktop/Server;Tools;45;0;0;69;2978;0.0232;0;0;NaN
rest-client;Desktop/Server;Tools;29;0;0;1;311;0.0032;0;1;0.0
allure2;Desktop/Server;Tools;175;0;0;4;138;0.029;2;2;1.0
PreLollipopTransition;Mobile;Tools;6;0;0;0;11;0.0;0;0;NaN
visualvm;Desktop/Server;Tools;26;0;0;11;1569;0.007;0;5;0.0
dr-elephant;Desktop/Server;Tools;317;0;0;0;388;0.0;0;18;0.0
caja;Desktop/Server;Tools;374;0;113;13;1661;0.0078;0;19;0.0
teammates;Desktop/Server;Tools;0;1336;0;30;1099;0.0273;0;9;0.0
autopsy;Desktop/Server;Tools;107;0;0;45;6593;0.0068;0;17;0.0
SchemaCrawler;Desktop/Server;Tools;420;0;0;13;1046;0.0124;0;37;0.0
tools-ocr;Desktop/Server;Tools;2;0;0;0;12;0.0;0;0;NaN
umlet;Desktop/Server;Tools;125;0;0;1;394;0.0025;0;52;0.0
JustWeTools;Desktop/Server;Tools;1;0;0;0;157;0.0;0;0;NaN
ffmpeg-cli-wrapper;Desktop/Server;Tools;87;0;0;0;174;0.0;0;17;0.0
spring-roo;Desktop/Server;Tools;504;0;0;3;964;0.0031;0;38;0.0
RegexGenerator;Desktop/Server;Tools;1;0;0;0;75;0.0;0;0;NaN
redis-replicator;Desktop/Server;Tools;102;0;0;0;67;0.0;0;4;0.0
xJavaFxTool;Desktop/Server;Tools;3;0;0;13;969;0.0134;0;0;NaN
aws-apigateway-importer;Desktop/Server;Tools;21;0;0;3;46;0.0652;0;0;NaN
jHiccup;Desktop/Server;Tools;2;0;0;0;30;0.0;0;0;NaN
compile-testing;Desktop/Server;Tools;190;0;0;1;60;0.0167;0;10;0.0
mxnet-model-server;Desktop/Server;Tools;3;6;0;3;228;0.0132;0;0;NaN
picard;Desktop/Server;Tools;0;799;0;6;944;0.0064;1;98;0.0102
portfolio;Desktop/Server;Tools;574;0;0;7;826;0.0085;0;6;0.0
inspectIT;Desktop/Server;Tools;0;2767;16;45;2591;0.0174;0;280;0.0
geometry-api-java;Desktop/Server;Tools;501;0;0;100;856;0.1168;0;0;NaN
mybatis-generator-gui-extension;Desktop/Server;Tools;4;0;0;0;38;0.0;0;0;NaN
java-dns-cache-manipulator;Desktop/Server;Tools;41;0;0;0;90;0.0;0;6;0.0
ananas-desktop;Desktop/Server;Tools;34;0;0;3;342;0.0088;0;1;0.0
distributed-redis-tool;Desktop/Server;Tools;23;0;0;0;11;0.0;0;0;NaN
elasticsearch-knapsack;Desktop/Server;Tools;106;0;0;59;873;0.0676;0;25;0.0
wx-tools;Desktop/Server;Tools;30;0;0;2;453;0.0044;0;0;NaN
classpy;Desktop/Server;Tools;21;0;0;3;60;0.05;0;0;NaN
lavagna;Desktop/Server;Tools;486;0;0;0;243;0.0;0;47;0.0
minimesos;Desktop/Server;Tools;66;0;0;2;126;0.0159;0;10;0.0
enunciate;Desktop/Server;Tools;91;0;0;36;1076;0.0335;0;7;0.0
JApiDocs;Desktop/Server;Tools;7;0;1;0;46;0.0;0;0;NaN
Web-Karma;Desktop/Server;Tools;77;0;0;4;2143;0.0019;0;0;NaN
BlossomsPokemonGoManager;Desktop/Server;Tools;15;0;0;0;173;0.0;0;0;NaN
typetools;Desktop/Server;Tools;0;8;0;0;9;0.0;0;3;0.0
wro4j;Desktop/Server;Tools;1278;0;1;65;777;0.0837;0;297;0.0
redpen;Desktop/Server;Tools;775;0;0;4;287;0.0139;0;18;0.0
cssembed;Desktop/Server;Tools;16;0;0;3;98;0.0306;0;1;0.0
cassandra-unit;Desktop/Server;Tools;53;0;0;0;61;0.0;0;4;0.0
bnd;Desktop/Server;Tools;2013;0;0;246;6565;0.0375;6;64;0.0938
spring-boot-thin-launcher;Desktop/Server;Tools;201;0;0;0;169;0.0;0;7;0.0
batfish;Desktop/Server;Tools;4986;0;0;62;2080;0.0298;0;316;0.0
JSCover;Desktop/Server;Tools;596;0;0;0;85;0.0;0;33;0.0
cosbench;Desktop/Server;Tools;7;0;0;13;1289;0.0101;0;2;0.0
igv;Desktop/Server;Tools;526;0;0;24;2002;0.012;0;5;0.0
gerrit-intellij-plugin;Desktop/Server;Tools;4;10;0;18;94;0.1915;0;0;NaN
mongobee;Multi-platform;Tools;39;0;0;0;37;0.0;0;2;0.0
matrix-toolkits-java;Desktop/Server;Tools;138;0;10;0;522;0.0;0;0;NaN
reactive-audit;Desktop/Server;Tools;550;0;0;1;74;0.0135;0;466;0.0
archi;Desktop/Server;Tools;816;0;0;8;573;0.014;0;26;0.0
gumtree;Desktop/Server;Tools;74;0;0;10;357;0.028;0;7;0.0
eclipse-integration-gradle;Desktop/Server;Tools;110;0;0;34;687;0.0495;0;14;0.0
Jailer;Desktop/Server;Tools;7;0;1;30;2141;0.014;0;0;NaN
tinyMediaManager;Desktop/Server;Tools;94;0;0;12;956;0.0126;0;1;0.0
portmapper;Desktop/Server;Tools;5;0;0;0;159;0.0;0;0;NaN
vulnerability-assessment-tool;Desktop/Server;Tools;597;0;4;21;1603;0.0131;9;23;0.3913
burp-rest-api;Desktop/Server;Tools;4;0;0;0;58;0.0;0;0;NaN
Kafdrop;Desktop/Server;Tools;1;0;0;9;50;0.18;0;0;NaN
spring-boot;Multi-platform;Frameworks;8727;1;0;82;2801;0.0293;316;1290;0.245
